-- Merging decision tree log ---
manifest
ADDED from E:\ubroadkast_test\AndroidVideoStreaming\androidVideoStreaming\src\main\AndroidManifest.xml:2:1-161:12
	package
		ADDED from E:\ubroadkast_test\AndroidVideoStreaming\androidVideoStreaming\src\main\AndroidManifest.xml:3:5-37
		INJECTED from E:\ubroadkast_test\AndroidVideoStreaming\androidVideoStreaming\src\main\AndroidManifest.xml
		INJECTED from E:\ubroadkast_test\AndroidVideoStreaming\androidVideoStreaming\src\main\AndroidManifest.xml
	android:versionName
		ADDED from E:\ubroadkast_test\AndroidVideoStreaming\androidVideoStreaming\src\main\AndroidManifest.xml:5:5-30
		INJECTED from E:\ubroadkast_test\AndroidVideoStreaming\androidVideoStreaming\src\main\AndroidManifest.xml
		INJECTED from E:\ubroadkast_test\AndroidVideoStreaming\androidVideoStreaming\src\main\AndroidManifest.xml
	android:versionCode
		ADDED from E:\ubroadkast_test\AndroidVideoStreaming\androidVideoStreaming\src\main\AndroidManifest.xml:4:5-28
		INJECTED from E:\ubroadkast_test\AndroidVideoStreaming\androidVideoStreaming\src\main\AndroidManifest.xml
		INJECTED from E:\ubroadkast_test\AndroidVideoStreaming\androidVideoStreaming\src\main\AndroidManifest.xml
	xmlns:android
		ADDED from E:\ubroadkast_test\AndroidVideoStreaming\androidVideoStreaming\src\main\AndroidManifest.xml:2:11-69
uses-sdk
ADDED from E:\ubroadkast_test\AndroidVideoStreaming\androidVideoStreaming\src\main\AndroidManifest.xml:7:5-9:41
MERGED from [:libstream-release:] E:\ubroadkast_test\AndroidVideoStreaming\androidVideoStreaming\build\intermediates\exploded-aar\libstream-release\AndroidManifest.xml:7:5-9:41
MERGED from [com.facebook.android:facebook:4.1.1] E:\ubroadkast_test\AndroidVideoStreaming\androidVideoStreaming\build\intermediates\exploded-aar\com.facebook.android\facebook\4.1.1\AndroidManifest.xml:24:5-26:41
MERGED from [com.android.support:support-v4:21.0.3] E:\ubroadkast_test\AndroidVideoStreaming\androidVideoStreaming\build\intermediates\exploded-aar\com.android.support\support-v4\21.0.3\AndroidManifest.xml:15:5-42
	android:targetSdkVersion
		ADDED from E:\ubroadkast_test\AndroidVideoStreaming\androidVideoStreaming\src\main\AndroidManifest.xml:9:9-38
		INJECTED from E:\ubroadkast_test\AndroidVideoStreaming\androidVideoStreaming\src\main\AndroidManifest.xml
		INJECTED from E:\ubroadkast_test\AndroidVideoStreaming\androidVideoStreaming\src\main\AndroidManifest.xml
	android:minSdkVersion
		ADDED from E:\ubroadkast_test\AndroidVideoStreaming\androidVideoStreaming\src\main\AndroidManifest.xml:8:9-35
		INJECTED from E:\ubroadkast_test\AndroidVideoStreaming\androidVideoStreaming\src\main\AndroidManifest.xml
		INJECTED from E:\ubroadkast_test\AndroidVideoStreaming\androidVideoStreaming\src\main\AndroidManifest.xml
uses-feature#android.hardware.camera
ADDED from E:\ubroadkast_test\AndroidVideoStreaming\androidVideoStreaming\src\main\AndroidManifest.xml:11:5-13:35
MERGED from [:libstream-release:] E:\ubroadkast_test\AndroidVideoStreaming\androidVideoStreaming\build\intermediates\exploded-aar\libstream-release\AndroidManifest.xml:13:5-15:36
	android:required
		ADDED from E:\ubroadkast_test\AndroidVideoStreaming\androidVideoStreaming\src\main\AndroidManifest.xml:13:9-32
	android:name
		ADDED from E:\ubroadkast_test\AndroidVideoStreaming\androidVideoStreaming\src\main\AndroidManifest.xml:12:9-47
uses-feature#android.hardware.camera.autofocus
ADDED from E:\ubroadkast_test\AndroidVideoStreaming\androidVideoStreaming\src\main\AndroidManifest.xml:14:5-16:36
MERGED from [:libstream-release:] E:\ubroadkast_test\AndroidVideoStreaming\androidVideoStreaming\build\intermediates\exploded-aar\libstream-release\AndroidManifest.xml:16:5-18:36
	android:required
		ADDED from E:\ubroadkast_test\AndroidVideoStreaming\androidVideoStreaming\src\main\AndroidManifest.xml:16:9-33
	android:name
		ADDED from E:\ubroadkast_test\AndroidVideoStreaming\androidVideoStreaming\src\main\AndroidManifest.xml:15:9-57
uses-feature#android.hardware.telephony
ADDED from E:\ubroadkast_test\AndroidVideoStreaming\androidVideoStreaming\src\main\AndroidManifest.xml:17:5-19:36
	android:required
		ADDED from E:\ubroadkast_test\AndroidVideoStreaming\androidVideoStreaming\src\main\AndroidManifest.xml:19:9-33
	android:name
		ADDED from E:\ubroadkast_test\AndroidVideoStreaming\androidVideoStreaming\src\main\AndroidManifest.xml:18:9-50
supports-screens
ADDED from E:\ubroadkast_test\AndroidVideoStreaming\androidVideoStreaming\src\main\AndroidManifest.xml:21:5-26:40
	android:largeScreens
		ADDED from E:\ubroadkast_test\AndroidVideoStreaming\androidVideoStreaming\src\main\AndroidManifest.xml:23:9-36
	android:smallScreens
		ADDED from E:\ubroadkast_test\AndroidVideoStreaming\androidVideoStreaming\src\main\AndroidManifest.xml:25:9-36
	android:normalScreens
		ADDED from E:\ubroadkast_test\AndroidVideoStreaming\androidVideoStreaming\src\main\AndroidManifest.xml:24:9-37
	android:xlargeScreens
		ADDED from E:\ubroadkast_test\AndroidVideoStreaming\androidVideoStreaming\src\main\AndroidManifest.xml:26:9-37
	android:anyDensity
		ADDED from E:\ubroadkast_test\AndroidVideoStreaming\androidVideoStreaming\src\main\AndroidManifest.xml:22:9-34
uses-permission#android.permission.INTERNET
ADDED from E:\ubroadkast_test\AndroidVideoStreaming\androidVideoStreaming\src\main\AndroidManifest.xml:28:5-30:35
MERGED from [:libstream-release:] E:\ubroadkast_test\AndroidVideoStreaming\androidVideoStreaming\build\intermediates\exploded-aar\libstream-release\AndroidManifest.xml:30:5-67
	android:required
		ADDED from E:\ubroadkast_test\AndroidVideoStreaming\androidVideoStreaming\src\main\AndroidManifest.xml:30:9-32
	android:name
		ADDED from E:\ubroadkast_test\AndroidVideoStreaming\androidVideoStreaming\src\main\AndroidManifest.xml:29:9-51
uses-permission#android.permission.WRITE_EXTERNAL_STORAGE
ADDED from E:\ubroadkast_test\AndroidVideoStreaming\androidVideoStreaming\src\main\AndroidManifest.xml:31:5-33:35
	android:required
		ADDED from E:\ubroadkast_test\AndroidVideoStreaming\androidVideoStreaming\src\main\AndroidManifest.xml:33:9-32
	android:name
		ADDED from E:\ubroadkast_test\AndroidVideoStreaming\androidVideoStreaming\src\main\AndroidManifest.xml:32:9-65
uses-permission#android.permission.RECORD_AUDIO
ADDED from E:\ubroadkast_test\AndroidVideoStreaming\androidVideoStreaming\src\main\AndroidManifest.xml:34:5-36:35
MERGED from [:libstream-release:] E:\ubroadkast_test\AndroidVideoStreaming\androidVideoStreaming\build\intermediates\exploded-aar\libstream-release\AndroidManifest.xml:29:5-71
	android:required
		ADDED from E:\ubroadkast_test\AndroidVideoStreaming\androidVideoStreaming\src\main\AndroidManifest.xml:36:9-32
	android:name
		ADDED from E:\ubroadkast_test\AndroidVideoStreaming\androidVideoStreaming\src\main\AndroidManifest.xml:35:9-55
uses-permission#android.permission.CAMERA
ADDED from E:\ubroadkast_test\AndroidVideoStreaming\androidVideoStreaming\src\main\AndroidManifest.xml:37:5-39:35
MERGED from [:libstream-release:] E:\ubroadkast_test\AndroidVideoStreaming\androidVideoStreaming\build\intermediates\exploded-aar\libstream-release\AndroidManifest.xml:11:5-65
	android:required
		ADDED from E:\ubroadkast_test\AndroidVideoStreaming\androidVideoStreaming\src\main\AndroidManifest.xml:39:9-32
	android:name
		ADDED from E:\ubroadkast_test\AndroidVideoStreaming\androidVideoStreaming\src\main\AndroidManifest.xml:38:9-49
uses-permission#android.permission.READ_PHONE_STATE
ADDED from E:\ubroadkast_test\AndroidVideoStreaming\androidVideoStreaming\src\main\AndroidManifest.xml:40:5-42:35
	android:required
		ADDED from E:\ubroadkast_test\AndroidVideoStreaming\androidVideoStreaming\src\main\AndroidManifest.xml:42:9-32
	android:name
		ADDED from E:\ubroadkast_test\AndroidVideoStreaming\androidVideoStreaming\src\main\AndroidManifest.xml:41:9-59
uses-permission#android.permission.ACCESS_NETWORK_STATE
ADDED from E:\ubroadkast_test\AndroidVideoStreaming\androidVideoStreaming\src\main\AndroidManifest.xml:43:5-45:35
	android:required
		ADDED from E:\ubroadkast_test\AndroidVideoStreaming\androidVideoStreaming\src\main\AndroidManifest.xml:45:9-32
	android:name
		ADDED from E:\ubroadkast_test\AndroidVideoStreaming\androidVideoStreaming\src\main\AndroidManifest.xml:44:9-63
uses-permission#android.permission.ACCESS_WIFI_STATE
ADDED from E:\ubroadkast_test\AndroidVideoStreaming\androidVideoStreaming\src\main\AndroidManifest.xml:47:5-49:35
	android:required
		ADDED from E:\ubroadkast_test\AndroidVideoStreaming\androidVideoStreaming\src\main\AndroidManifest.xml:49:9-32
	android:name
		ADDED from E:\ubroadkast_test\AndroidVideoStreaming\androidVideoStreaming\src\main\AndroidManifest.xml:48:9-60
uses-permission#android.permission.CHANGE_WIFI_STATE
ADDED from E:\ubroadkast_test\AndroidVideoStreaming\androidVideoStreaming\src\main\AndroidManifest.xml:50:5-52:35
	android:required
		ADDED from E:\ubroadkast_test\AndroidVideoStreaming\androidVideoStreaming\src\main\AndroidManifest.xml:52:9-32
	android:name
		ADDED from E:\ubroadkast_test\AndroidVideoStreaming\androidVideoStreaming\src\main\AndroidManifest.xml:51:9-60
uses-permission#android.permission.READ_EXTERNAL_STORAGE
ADDED from E:\ubroadkast_test\AndroidVideoStreaming\androidVideoStreaming\src\main\AndroidManifest.xml:56:5-58:34
	android:required
		ADDED from E:\ubroadkast_test\AndroidVideoStreaming\androidVideoStreaming\src\main\AndroidManifest.xml:58:9-32
	android:name
		ADDED from E:\ubroadkast_test\AndroidVideoStreaming\androidVideoStreaming\src\main\AndroidManifest.xml:57:9-64
uses-permission#android.permission.WRITE_SMS
ADDED from E:\ubroadkast_test\AndroidVideoStreaming\androidVideoStreaming\src\main\AndroidManifest.xml:59:5-60:34
	android:required
		ADDED from E:\ubroadkast_test\AndroidVideoStreaming\androidVideoStreaming\src\main\AndroidManifest.xml:60:9-32
	android:name
		ADDED from E:\ubroadkast_test\AndroidVideoStreaming\androidVideoStreaming\src\main\AndroidManifest.xml:59:22-65
uses-permission#android.permission.RECEIVE_SMS
ADDED from E:\ubroadkast_test\AndroidVideoStreaming\androidVideoStreaming\src\main\AndroidManifest.xml:61:5-62:34
	android:required
		ADDED from E:\ubroadkast_test\AndroidVideoStreaming\androidVideoStreaming\src\main\AndroidManifest.xml:62:9-32
	android:name
		ADDED from E:\ubroadkast_test\AndroidVideoStreaming\androidVideoStreaming\src\main\AndroidManifest.xml:61:22-67
uses-permission#android.permission.READ_SMS
ADDED from E:\ubroadkast_test\AndroidVideoStreaming\androidVideoStreaming\src\main\AndroidManifest.xml:63:5-64:34
	android:required
		ADDED from E:\ubroadkast_test\AndroidVideoStreaming\androidVideoStreaming\src\main\AndroidManifest.xml:64:9-32
	android:name
		ADDED from E:\ubroadkast_test\AndroidVideoStreaming\androidVideoStreaming\src\main\AndroidManifest.xml:63:22-64
application
ADDED from E:\ubroadkast_test\AndroidVideoStreaming\androidVideoStreaming\src\main\AndroidManifest.xml:66:5-159:19
MERGED from [:libstream-release:] E:\ubroadkast_test\AndroidVideoStreaming\androidVideoStreaming\build\intermediates\exploded-aar\libstream-release\AndroidManifest.xml:32:5-35:19
MERGED from [com.facebook.android:facebook:4.1.1] E:\ubroadkast_test\AndroidVideoStreaming\androidVideoStreaming\build\intermediates\exploded-aar\com.facebook.android\facebook\4.1.1\AndroidManifest.xml:28:5-20
MERGED from [com.android.support:support-v4:21.0.3] E:\ubroadkast_test\AndroidVideoStreaming\androidVideoStreaming\build\intermediates\exploded-aar\com.android.support\support-v4\21.0.3\AndroidManifest.xml:16:5-19
	android:label
		ADDED from E:\ubroadkast_test\AndroidVideoStreaming\androidVideoStreaming\src\main\AndroidManifest.xml:69:9-41
	android:allowBackup
		ADDED from E:\ubroadkast_test\AndroidVideoStreaming\androidVideoStreaming\src\main\AndroidManifest.xml:67:9-35
	android:icon
		ADDED from E:\ubroadkast_test\AndroidVideoStreaming\androidVideoStreaming\src\main\AndroidManifest.xml:68:9-45
	android:theme
		ADDED from E:\ubroadkast_test\AndroidVideoStreaming\androidVideoStreaming\src\main\AndroidManifest.xml:70:9-56
meta-data#com.facebook.sdk.ApplicationId
ADDED from E:\ubroadkast_test\AndroidVideoStreaming\androidVideoStreaming\src\main\AndroidManifest.xml:71:9-73:55
	android:value
		ADDED from E:\ubroadkast_test\AndroidVideoStreaming\androidVideoStreaming\src\main\AndroidManifest.xml:73:13-52
	android:name
		ADDED from E:\ubroadkast_test\AndroidVideoStreaming\androidVideoStreaming\src\main\AndroidManifest.xml:72:13-58
provider#com.facebook.FacebookContentProvider
ADDED from E:\ubroadkast_test\AndroidVideoStreaming\androidVideoStreaming\src\main\AndroidManifest.xml:75:9-78:39
	android:authorities
		ADDED from E:\ubroadkast_test\AndroidVideoStreaming\androidVideoStreaming\src\main\AndroidManifest.xml:77:13-90
	android:exported
		ADDED from E:\ubroadkast_test\AndroidVideoStreaming\androidVideoStreaming\src\main\AndroidManifest.xml:78:13-36
	android:name
		ADDED from E:\ubroadkast_test\AndroidVideoStreaming\androidVideoStreaming\src\main\AndroidManifest.xml:76:13-64
activity#com.ubroadkast.nayatel.MainActivity
ADDED from E:\ubroadkast_test\AndroidVideoStreaming\androidVideoStreaming\src\main\AndroidManifest.xml:80:9-88:20
	android:label
		ADDED from E:\ubroadkast_test\AndroidVideoStreaming\androidVideoStreaming\src\main\AndroidManifest.xml:82:13-45
	android:theme
		ADDED from E:\ubroadkast_test\AndroidVideoStreaming\androidVideoStreaming\src\main\AndroidManifest.xml:84:13-60
	android:name
		ADDED from E:\ubroadkast_test\AndroidVideoStreaming\androidVideoStreaming\src\main\AndroidManifest.xml:81:13-41
activity#com.ubroadkast.nayatel.Home
ADDED from E:\ubroadkast_test\AndroidVideoStreaming\androidVideoStreaming\src\main\AndroidManifest.xml:89:9-92:52
	android:screenOrientation
		ADDED from E:\ubroadkast_test\AndroidVideoStreaming\androidVideoStreaming\src\main\AndroidManifest.xml:92:13-49
	android:label
		ADDED from E:\ubroadkast_test\AndroidVideoStreaming\androidVideoStreaming\src\main\AndroidManifest.xml:91:13-45
	android:name
		ADDED from E:\ubroadkast_test\AndroidVideoStreaming\androidVideoStreaming\src\main\AndroidManifest.xml:90:13-33
activity#com.ubroadkast.nayatel.Settings
ADDED from E:\ubroadkast_test\AndroidVideoStreaming\androidVideoStreaming\src\main\AndroidManifest.xml:93:9-96:52
	android:screenOrientation
		ADDED from E:\ubroadkast_test\AndroidVideoStreaming\androidVideoStreaming\src\main\AndroidManifest.xml:96:13-49
	android:label
		ADDED from E:\ubroadkast_test\AndroidVideoStreaming\androidVideoStreaming\src\main\AndroidManifest.xml:95:13-37
	android:name
		ADDED from E:\ubroadkast_test\AndroidVideoStreaming\androidVideoStreaming\src\main\AndroidManifest.xml:94:13-37
activity#com.ubroadkast.nayatel.login
ADDED from E:\ubroadkast_test\AndroidVideoStreaming\androidVideoStreaming\src\main\AndroidManifest.xml:97:9-100:52
	android:screenOrientation
		ADDED from E:\ubroadkast_test\AndroidVideoStreaming\androidVideoStreaming\src\main\AndroidManifest.xml:100:13-49
	android:label
		ADDED from E:\ubroadkast_test\AndroidVideoStreaming\androidVideoStreaming\src\main\AndroidManifest.xml:99:13-45
	android:name
		ADDED from E:\ubroadkast_test\AndroidVideoStreaming\androidVideoStreaming\src\main\AndroidManifest.xml:98:13-34
activity#com.ubroadkast.nayatel.SplashScreen
ADDED from E:\ubroadkast_test\AndroidVideoStreaming\androidVideoStreaming\src\main\AndroidManifest.xml:101:9-113:20
	android:screenOrientation
		ADDED from E:\ubroadkast_test\AndroidVideoStreaming\androidVideoStreaming\src\main\AndroidManifest.xml:104:13-49
	android:label
		ADDED from E:\ubroadkast_test\AndroidVideoStreaming\androidVideoStreaming\src\main\AndroidManifest.xml:103:13-45
	android:name
		ADDED from E:\ubroadkast_test\AndroidVideoStreaming\androidVideoStreaming\src\main\AndroidManifest.xml:102:13-41
intent-filter#android.intent.action.MAIN+android.intent.category.LAUNCHER
ADDED from E:\ubroadkast_test\AndroidVideoStreaming\androidVideoStreaming\src\main\AndroidManifest.xml:107:13-111:29
action#android.intent.action.MAIN
ADDED from E:\ubroadkast_test\AndroidVideoStreaming\androidVideoStreaming\src\main\AndroidManifest.xml:108:17-69
	android:name
		ADDED from E:\ubroadkast_test\AndroidVideoStreaming\androidVideoStreaming\src\main\AndroidManifest.xml:108:25-66
category#android.intent.category.LAUNCHER
ADDED from E:\ubroadkast_test\AndroidVideoStreaming\androidVideoStreaming\src\main\AndroidManifest.xml:110:17-77
	android:name
		ADDED from E:\ubroadkast_test\AndroidVideoStreaming\androidVideoStreaming\src\main\AndroidManifest.xml:110:27-74
activity#com.facebook.FacebookActivity
ADDED from E:\ubroadkast_test\AndroidVideoStreaming\androidVideoStreaming\src\main\AndroidManifest.xml:114:9-118:75
	android:label
		ADDED from E:\ubroadkast_test\AndroidVideoStreaming\androidVideoStreaming\src\main\AndroidManifest.xml:117:13-45
	android:configChanges
		ADDED from E:\ubroadkast_test\AndroidVideoStreaming\androidVideoStreaming\src\main\AndroidManifest.xml:116:13-96
	android:theme
		ADDED from E:\ubroadkast_test\AndroidVideoStreaming\androidVideoStreaming\src\main\AndroidManifest.xml:118:13-72
	android:name
		ADDED from E:\ubroadkast_test\AndroidVideoStreaming\androidVideoStreaming\src\main\AndroidManifest.xml:115:13-57
activity#com.ubroadkast.nayatel.facebook
ADDED from E:\ubroadkast_test\AndroidVideoStreaming\androidVideoStreaming\src\main\AndroidManifest.xml:119:9-122:52
	android:screenOrientation
		ADDED from E:\ubroadkast_test\AndroidVideoStreaming\androidVideoStreaming\src\main\AndroidManifest.xml:122:13-49
	android:label
		ADDED from E:\ubroadkast_test\AndroidVideoStreaming\androidVideoStreaming\src\main\AndroidManifest.xml:121:13-56
	android:name
		ADDED from E:\ubroadkast_test\AndroidVideoStreaming\androidVideoStreaming\src\main\AndroidManifest.xml:120:13-37
activity#com.ubroadkast.nayatel.Terms
ADDED from E:\ubroadkast_test\AndroidVideoStreaming\androidVideoStreaming\src\main\AndroidManifest.xml:123:9-126:52
	android:screenOrientation
		ADDED from E:\ubroadkast_test\AndroidVideoStreaming\androidVideoStreaming\src\main\AndroidManifest.xml:126:13-49
	android:label
		ADDED from E:\ubroadkast_test\AndroidVideoStreaming\androidVideoStreaming\src\main\AndroidManifest.xml:125:13-49
	android:name
		ADDED from E:\ubroadkast_test\AndroidVideoStreaming\androidVideoStreaming\src\main\AndroidManifest.xml:124:13-34
activity#com.ubroadkast.nayatel.Signup
ADDED from E:\ubroadkast_test\AndroidVideoStreaming\androidVideoStreaming\src\main\AndroidManifest.xml:127:9-130:52
	android:screenOrientation
		ADDED from E:\ubroadkast_test\AndroidVideoStreaming\androidVideoStreaming\src\main\AndroidManifest.xml:130:13-49
	android:label
		ADDED from E:\ubroadkast_test\AndroidVideoStreaming\androidVideoStreaming\src\main\AndroidManifest.xml:129:13-36
	android:name
		ADDED from E:\ubroadkast_test\AndroidVideoStreaming\androidVideoStreaming\src\main\AndroidManifest.xml:128:13-35
activity#com.ubroadkast.nayatel.rating
ADDED from E:\ubroadkast_test\AndroidVideoStreaming\androidVideoStreaming\src\main\AndroidManifest.xml:131:9-134:52
	android:screenOrientation
		ADDED from E:\ubroadkast_test\AndroidVideoStreaming\androidVideoStreaming\src\main\AndroidManifest.xml:134:13-49
	android:label
		ADDED from E:\ubroadkast_test\AndroidVideoStreaming\androidVideoStreaming\src\main\AndroidManifest.xml:133:13-48
	android:name
		ADDED from E:\ubroadkast_test\AndroidVideoStreaming\androidVideoStreaming\src\main\AndroidManifest.xml:132:13-35
activity#com.ubroadkast.nayatel.change_password
ADDED from E:\ubroadkast_test\AndroidVideoStreaming\androidVideoStreaming\src\main\AndroidManifest.xml:135:9-137:46
	android:label
		ADDED from E:\ubroadkast_test\AndroidVideoStreaming\androidVideoStreaming\src\main\AndroidManifest.xml:137:13-43
	android:name
		ADDED from E:\ubroadkast_test\AndroidVideoStreaming\androidVideoStreaming\src\main\AndroidManifest.xml:136:13-44
activity#com.ubroadkast.nayatel.HomeScreen
ADDED from E:\ubroadkast_test\AndroidVideoStreaming\androidVideoStreaming\src\main\AndroidManifest.xml:138:9-48
	android:name
		ADDED from E:\ubroadkast_test\AndroidVideoStreaming\androidVideoStreaming\src\main\AndroidManifest.xml:138:19-45
activity#com.ubroadkast.nayatel.Videoview
ADDED from E:\ubroadkast_test\AndroidVideoStreaming\androidVideoStreaming\src\main\AndroidManifest.xml:139:9-47
	android:name
		ADDED from E:\ubroadkast_test\AndroidVideoStreaming\androidVideoStreaming\src\main\AndroidManifest.xml:139:19-44
activity#com.ubroadkast.nayatel.URLExtractor
ADDED from E:\ubroadkast_test\AndroidVideoStreaming\androidVideoStreaming\src\main\AndroidManifest.xml:140:9-59
	android:name
		ADDED from E:\ubroadkast_test\AndroidVideoStreaming\androidVideoStreaming\src\main\AndroidManifest.xml:140:19-47
activity#com.ubroadkast.nayatel.SettingsActivity
ADDED from E:\ubroadkast_test\AndroidVideoStreaming\androidVideoStreaming\src\main\AndroidManifest.xml:142:9-146:72
	android:screenOrientation
		ADDED from E:\ubroadkast_test\AndroidVideoStreaming\androidVideoStreaming\src\main\AndroidManifest.xml:143:13-50
	android:label
		ADDED from E:\ubroadkast_test\AndroidVideoStreaming\androidVideoStreaming\src\main\AndroidManifest.xml:146:13-60
	android:name
		ADDED from E:\ubroadkast_test\AndroidVideoStreaming\androidVideoStreaming\src\main\AndroidManifest.xml:145:13-45
receiver#com.ubroadkast.nayatel.SmsBroadcastReciever
ADDED from E:\ubroadkast_test\AndroidVideoStreaming\androidVideoStreaming\src\main\AndroidManifest.xml:152:9-156:20
	android:enabled
		ADDED from E:\ubroadkast_test\AndroidVideoStreaming\androidVideoStreaming\src\main\AndroidManifest.xml:152:56-78
	android:exported
		ADDED from E:\ubroadkast_test\AndroidVideoStreaming\androidVideoStreaming\src\main\AndroidManifest.xml:152:79-102
	android:name
		ADDED from E:\ubroadkast_test\AndroidVideoStreaming\androidVideoStreaming\src\main\AndroidManifest.xml:152:19-55
intent-filter#android.provider.Telephony.SMS_RECEIVED
ADDED from E:\ubroadkast_test\AndroidVideoStreaming\androidVideoStreaming\src\main\AndroidManifest.xml:153:13-155:29
	android:priority
		ADDED from E:\ubroadkast_test\AndroidVideoStreaming\androidVideoStreaming\src\main\AndroidManifest.xml:153:28-50
action#android.provider.Telephony.SMS_RECEIVED
ADDED from E:\ubroadkast_test\AndroidVideoStreaming\androidVideoStreaming\src\main\AndroidManifest.xml:154:17-81
	android:name
		ADDED from E:\ubroadkast_test\AndroidVideoStreaming\androidVideoStreaming\src\main\AndroidManifest.xml:154:25-79
uses-feature#android.hardware.camera.front
ADDED from [:libstream-release:] E:\ubroadkast_test\AndroidVideoStreaming\androidVideoStreaming\build\intermediates\exploded-aar\libstream-release\AndroidManifest.xml:19:5-21:36
	android:required
		ADDED from [:libstream-release:] E:\ubroadkast_test\AndroidVideoStreaming\androidVideoStreaming\build\intermediates\exploded-aar\libstream-release\AndroidManifest.xml:21:9-33
	android:name
		ADDED from [:libstream-release:] E:\ubroadkast_test\AndroidVideoStreaming\androidVideoStreaming\build\intermediates\exploded-aar\libstream-release\AndroidManifest.xml:20:9-53
uses-feature#android.hardware.camera.flash
ADDED from [:libstream-release:] E:\ubroadkast_test\AndroidVideoStreaming\androidVideoStreaming\build\intermediates\exploded-aar\libstream-release\AndroidManifest.xml:22:5-24:36
	android:required
		ADDED from [:libstream-release:] E:\ubroadkast_test\AndroidVideoStreaming\androidVideoStreaming\build\intermediates\exploded-aar\libstream-release\AndroidManifest.xml:24:9-33
	android:name
		ADDED from [:libstream-release:] E:\ubroadkast_test\AndroidVideoStreaming\androidVideoStreaming\build\intermediates\exploded-aar\libstream-release\AndroidManifest.xml:23:9-53
uses-feature#android.hardware.camera2
ADDED from [:libstream-release:] E:\ubroadkast_test\AndroidVideoStreaming\androidVideoStreaming\build\intermediates\exploded-aar\libstream-release\AndroidManifest.xml:25:5-27:36
	android:required
		ADDED from [:libstream-release:] E:\ubroadkast_test\AndroidVideoStreaming\androidVideoStreaming\build\intermediates\exploded-aar\libstream-release\AndroidManifest.xml:27:9-33
	android:name
		ADDED from [:libstream-release:] E:\ubroadkast_test\AndroidVideoStreaming\androidVideoStreaming\build\intermediates\exploded-aar\libstream-release\AndroidManifest.xml:26:9-48
